<?xml version="1.0" encoding="utf-8"?>
<!-- Generator: Adobe Illustrator 19.0.0, SVG Export Plug-In . SVG Version: 6.00 Build 0)  -->
<svg version="1.1" id="Layer_1" xmlns="http://www.w3.org/2000/svg"  x="0px" y="0px"
	 viewBox="-293 493 24 24" style="enable-background:new -293 493 24 24;" xml:space="preserve">
<style type="text/css">
	.st0{fill:#FFFFFF;}
</style>
<path class="st0" d="M-276.3,493l2.8,2.8l-9.3,9.2l9.3,9.2l-2.8,2.8l-12.2-12L-276.3,493z"/>
</svg>
