{
  "project_info": {
    "project_number": "916556318943",
    "firebase_url": "https://wargaku-ad2cd.firebaseio.com",
    "project_id": "wargaku-ad2cd",
    "storage_bucket": "wargaku-ad2cd.appspot.com"
  },
  "client": [
    {
      "client_info": {
        "mobilesdk_app_id": "1:916556318943:android:89009e0e22412991",
        "android_client_info": {
          "package_name": "com.equalsmark.wargaku"
        }
      },
      "oauth_client": [
        {
          "client_id": "916556318943-phu7os3beq0ravk1fi92mqig3hpbvd41.apps.googleusercontent.com",
          "client_type": 1,
          "android_info": {
            "package_name": "com.equalsmark.wargaku",
            "certificate_hash": "3954c1e9855aa4adf5dfb865d6bb404a910c66e7"
          }
        },
        {
          "client_id": "916556318943-9ngn3km24gfn1pgtn8gl0i0bul22iphk.apps.googleusercontent.com",
          "client_type": 1,
          "android_info": {
            "package_name": "com.equalsmark.wargaku",
            "certificate_hash": "81effd2d6e390d8bab745c34ee22a86648a66d2a"
          }
        },
        {
          "client_id": "916556318943-nfvntlh4mos68ldrto43j4fesf44aacc.apps.googleusercontent.com",
          "client_type": 1,
          "android_info": {
            "package_name": "com.equalsmark.wargaku",
            "certificate_hash": "3d3c6a253bd8a5f90ac351b44992c706d7117908"
          }
        },
        {
          "client_id": "916556318943-t170tcjku2ksp4v65s9v2lchjnnpkfc8.apps.googleusercontent.com",
          "client_type": 1,
          "android_info": {
            "package_name": "com.equalsmark.wargaku",
            "certificate_hash": "b7651a67a2bfc8d96fffd2df256fcc728d3cd213"
          }
        },
        {
          "client_id": "916556318943-oqr721vauchs4fgvltu69k41cvbvomk8.apps.googleusercontent.com",
          "client_type": 1,
          "android_info": {
            "package_name": "com.equalsmark.wargaku",
            "certificate_hash": "c5bf9829518191788335b127ce45a95b94f179d3"
          }
        },
        {
          "client_id": "916556318943-82jn1h2hs43h6tql9rhmk9en8ch3f715.apps.googleusercontent.com",
          "client_type": 3
        }
      ],
      "api_key": [
        {
          "current_key": "AIzaSyC3y50ETE4yRcRkZziXyuqure02J8CiC5Y"
        }
      ],
      "services": {
        "analytics_service": {
          "status": 1
        },
        "appinvite_service": {
          "status": 2,
          "other_platform_oauth_client": [
            {
              "client_id": "916556318943-82jn1h2hs43h6tql9rhmk9en8ch3f715.apps.googleusercontent.com",
              "client_type": 3
            },
            {
              "client_id": "916556318943-s374upnr1rk9imnjk7fqh7n4bodlu3k7.apps.googleusercontent.com",
              "client_type": 2,
              "ios_info": {
                "bundle_id": "com.equalsmark.wargaku"
              }
            }
          ]
        },
        "ads_service": {
          "status": 2
        }
      }
    }
  ],
  "configuration_version": "1"
}