<?xml version="1.0" standalone="no"?>
<!DOCTYPE svg PUBLIC "-//W3C//DTD SVG 1.1//EN" "http://www.w3.org/Graphics/SVG/1.1/DTD/svg11.dtd">
<svg xmlns="http://www.w3.org/2000/svg">
<metadata>Copyright (C) 2018 by original authors @ fontello.com</metadata>
<defs>
<font id="wargakita" horiz-adv-x="1000" >
<font-face font-family="wargakita" font-weight="400" font-stretch="normal" units-per-em="1000" ascent="850" descent="-150" />
<missing-glyph horiz-adv-x="1000" />
<glyph glyph-name="wargakita-booking" unicode="&#xe800;" d="M500 850c-275 0-500-225-500-500s225-500 500-500 500 225 500 500-225 500-500 500z m0-900c-220 0-400 180-400 400s180 400 400 400 400-180 400-400-180-400-400-400z m25 650h-75v-300l260-160 40 65-225 135v260z" horiz-adv-x="1000" />

<glyph glyph-name="wargakita-dashboard" unicode="&#xe801;" d="M556 850h444v-333h-444v333z m-556 0h444v-556h-444v556z m0-667h444v-333h-444v333z m556 223h444v-556h-444v556z" horiz-adv-x="1000" />

<glyph glyph-name="wargakita-feedback" unicode="&#xe802;" d="M904 447c-8 4-17 2-23-5l-129-140c-8-10-19-16-32-19l-104-23c-21-4-42 3-56 19-15 16-21 39-17 62l18 100h-332c-11 0-21 10-21 23s10 22 21 22h350c1 1 1 2 2 3l81 88h-433c-11 0-21 10-21 23s10 23 21 23h459c4 0 8-2 11-5l135 148c12 12 26 22 41 29 8 3 13 10 13 19 1 8-2 16-9 21-14 10-29 15-46 15h-750c-46 0-83-41-83-91v-886c0-10 5-18 13-21 2-2 5-2 8-2 5 0 11 2 15 6l202 221h595c46 0 84 41 84 91v258c0 9-5 17-13 21z m-425-142h-250c-11 0-21 10-21 22 0 13 10 23 21 23h250c12 0 21-10 21-23 0-12-9-22-21-22z m441 454c-21 0-41-9-56-25l-254-277c-3-3-5-7-5-12l-21-113c-2-8 1-15 5-21 4-4 10-6 15-6 2 0 3 0 4 0l104 23c4 1 8 3 11 6l254 277c0 0 0 0 0 0 14 16 23 38 23 61 0 48-36 87-80 87z m-33-182l-54 59 30 32 54-59-30-32z" horiz-adv-x="1000" />

<glyph glyph-name="wargakita-guard-home" unicode="&#xe803;" d="M324 465v-298h352v298l-176 116-176-116z m157-226h-64v57h64v-57z m0 89h-64v57h64v-57z m38 57h64v-57h-64c0 0 0 57 0 57z m0-89h64v-57h-64c0 0 0 57 0 57z m481 431c-54 32-135 116-135 116s-74-41-176-41-189 48-189 48-88-48-189-48c-102 0-176 41-176 41s-81-84-135-116c22-28 142-191 59-405-80-206-65-257 47-333 124-83 240-22 394-139 155 117 270 56 394 139 112 76 127 128 47 333-83 214 37 377 59 405z m-185-307c-8-10-21-15-34-15-8 0-17 3-25 8l-10 6v-283c0-17-16-31-35-31h-422c-19 0-35 14-35 31v283l-10-6c-19-13-45-9-59 7-14 16-10 40 8 52l282 185c15 10 35 10 50 0l98-64v11c0 20 19 37 42 37 23 0 42-17 42-37v-62c0-1 0-3 0-4l100-66c18-12 22-36 8-52z" horiz-adv-x="1000" />

<glyph glyph-name="wargakita-inbox" unicode="&#xe804;" d="M900 696h-800c-55 0-100-39-100-88v-529c0-49 45-88 100-88h800c55 0 100 39 100 88v529c0 49-45 88-100 88z m0-176l-400-220-400 220v88l400-220 400 220v-88z" horiz-adv-x="1000" />

<glyph glyph-name="wargakita-info" unicode="&#xe805;" d="M500-150c-276 0-500 224-500 500s224 500 500 500 500-224 500-500-224-500-500-500z m0 873c-206 0-373-167-373-373s167-373 373-373 373 167 373 373-167 373-373 373z m-8-139c33 0 60-26 60-59s-27-59-60-59-59 26-59 59 27 59 59 59z m90-468h-30-104-30v79h30v135h-29v79h29 89 15v-214h30v-79z" horiz-adv-x="1000" />

<glyph glyph-name="wargakita-member" unicode="&#xe806;" d="M500 413c58 0 104-48 104-107s-46-107-104-107c-58 0-104 48-104 107s46 107 104 107z m44-221h-88c-74 0-134-61-134-137v-111l0-2 8-2c70-23 131-30 181-30 98 0 155 29 159 30l7 4 1 0v111c0 76-60 137-134 137z m-257 598c93 0 168-77 168-173s-75-172-168-172-168 77-168 172 75 173 168 173z m426-345c93 0 168 77 168 172 0 96-75 173-168 173-93 0-168-77-168-173s75-172 168-172z m-295-236c-27 23-44 58-44 97 0 48 26 89 64 112-25 10-52 15-80 15h-143c-118 0-215-99-215-220v-179l0-3 12-4c112-36 209-48 289-48v76c0 74 50 137 117 154z m366 224h-142c-28 0-55-5-80-15 38-22 64-64 64-112 0-38-17-73-44-97 27-7 52-21 72-42 29-30 45-69 45-112v-76c80 0 177 13 289 48l12 4 0 3v179c0 121-97 220-216 220z" horiz-adv-x="1000" />

<glyph glyph-name="wargakita-request-form" unicode="&#xe807;" d="M856 850h-712c-14 0-26-11-26-25v-950c0-14 12-25 26-25h712c14 0 26 12 26 25v950c0 14-12 25-26 25z m-369-108h241c14 0 26-11 26-25 0-14-12-25-26-25h-241c-14 0-26 11-26 25 0 14 12 25 26 25z m0-130h241c14 0 26-12 26-25 0-14-12-26-26-26h-241c-14 0-26 12-26 26 0 13 12 25 26 25z m-197 38c-10 7-17 18-17 31v23c0 21 18 38 40 38 21 0 39-17 39-38v-23c0-13-7-24-16-31 30-7 53-34 53-66 0-14-12-25-26-25h-101c-15 0-26 12-26 25 0 32 23 59 54 66z m-28-168h466c14 0 26-12 26-26 0-14-12-25-26-25h-466c-15 0-26 12-26 25 0 14 11 26 26 26z m0-131h466c14 0 26-11 26-25 0-14-12-25-26-25h-466c-15 0-26 11-26 25 0 14 11 25 26 25z m0-130h466c14 0 26-11 26-25s-12-25-26-25h-466c-15 0-26 11-26 25s11 25 26 25z m130-232h-130c-15 0-26 11-26 25s11 25 26 25h130c15 0 26-11 26-25 0-14-11-25-26-25z m346 0h-130c-15 0-26 11-26 25s11 25 26 25h130c15 0 26-11 26-25 0-14-11-25-26-25z" horiz-adv-x="1000" />

<glyph glyph-name="wargakita-user-profile" unicode="&#xe808;" d="M1000 350c0 276-224 500-500 500s-500-224-500-500c0-146 63-277 162-368l0-1 16-13c1-1 2-2 3-3 9-7 18-14 27-20 3-2 6-4 9-7 9-6 19-13 29-19 3-1 5-2 7-3 11-7 23-13 34-18 1-1 2-1 3-1 38-18 78-31 121-39 1 0 2 0 3 0 13-2 27-4 40-6 2 0 3 0 5 0 14-1 27-2 41-2 14 0 27 1 40 2 2 0 4 0 5 0 14 2 27 3 40 6 1 0 2 0 3 0 42 8 82 20 120 38 1 0 2 1 4 1 11 6 22 11 33 17 2 2 5 3 8 5 10 6 19 12 29 18 3 2 6 5 10 7 8 6 15 12 23 18 2 2 4 3 5 4l17 14-1 0c101 92 164 224 164 370z m-964 0c0 256 208 464 464 464s464-208 464-464c0-138-61-262-157-347-5 4-10 7-16 10l-154 77c-14 7-22 21-22 36v54c3 5 7 10 11 15 20 28 36 59 48 93 23 11 38 34 38 60v64c0 16-6 31-17 43v85c1 10 5 63-34 107-33 38-88 57-161 57s-128-19-161-57c-39-44-35-97-34-107v-85c-11-12-17-27-17-43v-64c0-20 9-39 25-51 15-58 45-102 56-116v-53c0-15-8-28-21-36l-144-78c-5-2-9-5-14-9-94 85-154 208-154 345z" horiz-adv-x="1000" />

<glyph glyph-name="wargakita-vehicle" unicode="&#xe809;" d="M938 474c-1 1-2 1-2 2l-36 32c30 6 61 29 61 53 0 27-41 37-76 37-36 0-40-23-41-40l-91 82c-18 17-53 31-80 31h-177 0-178c-26 0-61-14-80-31l-91-82c-1 17-5 40-41 40-35 0-76-10-76-37 0-24 32-47 61-53l-35-32c-1-1-2-1-2-2-38-30-63-86-63-127v-120c0-29 13-56 33-76v-47c0-27 24-49 54-49h67c30 0 54 22 54 49v12h297 0 296v-12c0-27 25-49 55-49h66c30 0 55 22 55 49v47c20 20 32 47 32 76v120c0 41-25 97-62 127z m-667 130c13 10 36 17 47 17h177 0 178c11 0 34-7 46-17l120-109h-343 0-344l119 109z m-239-238c0 29 25 53 56 53 31 0 131-55 131-84 0-30-100-23-131-23-31 0-56 24-56 54z m167-197h-10-11l-63 0c-17 5-30 11-38 18-5 3-8 6-11 9-2 4-4 7-6 10-7 21 9 40 9 40h107l72-77-49 0 0 0z m451 0h-154 0-155c-32 0-58 25-58 55h212 0 213c0-31-26-55-58-55z m14 92h-168 0-168c-35 0-63 40-63 90h231 0 231c0-50-28-90-63-90z m267-55c-1-3-3-6-6-10-2-3-6-6-10-10-9-6-21-12-39-17l-63 0h-10-11-48l71 77h108c0 0 16-19 8-40z m-28 106c-30 0-131-7-131 23 0 29 101 84 131 84 31 0 56-24 56-54 0-29-25-53-56-53z" horiz-adv-x="1000" />

<glyph glyph-name="wargakita-visitor" unicode="&#xe80a;" d="M857 659c0 0 0 9 0 19 0 11-1 35-13 46-6 6-15 10-27 10h-67c0 0-36 0-36-34v-36c0-39-69-38-69-38l-288-1c0 0-71 2-71 34v46c0 0 2 30-36 30h-71c0 0-36 0-36-32v-44c0 0 1-19-28-29-22-8-70-1-93-21-13-10-22-28-22-58v-515c0 0 2-71 71-71h853c0 0 76 5 76 69v520c0 0-2 71-74 71 0-1-69 4-69 34z m-107 2c0 20 14 37 33 37h3c19 0 35-17 35-37v-73c0-20-14-37-34-37h-2c-20 0-35 17-35 37l0 73 0 0z m-122-366h178c10 0 18-8 18-18 0-10-8-18-18-18h-178c-10 0-18 8-18 18 0 10 8 18 18 18z m195-93c0-11-8-18-19-18h-174c-11 0-19 7-19 18 0 10 8 19 19 19h174c10 0 19-9 19-19z m-518 313c55 0 100-50 100-118 0-68-44-122-100-122s-99 55-99 122c0 68 44 118 99 118z m-125 148c0 20 13 34 33 34h2c20 0 35-14 35-34v-75c0-20-16-37-36-37h-2c-20 0-32 17-32 37v75z m312-542c-9-13-28-12-28-12h-314c0 0-21-1-30 12-5 7-2 22 2 30l8 19c0 0 23 54 50 85 16 19 36 14 48 8 8-4 17-15 23-21 9-8 24-17 50-17h15c26 0 41 9 50 17 6 6 15 18 23 22 11 5 29 9 44-9 27-31 48-86 48-86l9-19c3-8 7-22 2-29z m316-8h-182c-10 0-17 7-17 17 0 10 7 18 17 18h182c9 0 17-8 17-18 0-10-8-17-17-17z" horiz-adv-x="1000" />

<glyph glyph-name="wargakita-security" unicode="&#xe80b;" d="M867 160c0 0 0 0 0 0-1 2-2 3-3 4 0 1-1 2-2 3 0 0-1 1-1 2-1 1-2 2-3 3 0 1 0 1-1 1 0 1 0 1 0 1-1 1-2 3-4 4 0 0 0 1-1 1-1 1-2 2-3 4 0 0-1 1-1 1-1 1-2 2-3 3-1 1-2 1-2 2-1 0-1 1-2 1-21 20-46 34-75 42 0 0-1 0-1 1 0 0-136 23-136 23 0 0 0 0-1 0-6 1-12 0-18-2-5 5-8 13-8 20v23c9 5 17 11 25 17 34 27 55 66 59 109 25 1 45 20 45 43v33c0 13-7 25-17 33v75c49 23 59 49 59 68 0 32-31 71-82 104-33 20-102 55-193 55s-160-35-193-55c-51-33-82-73-82-104 0-19 10-45 59-68v-75c-10-8-17-20-17-34v-32c0-23 20-43 45-44 4-42 25-81 59-108 8-7 16-12 25-18v-23c0-6-3-14-8-19-6 2-13 3-19 2l-136-24c0 0-1 0-1 0-29-8-54-22-75-42-1-1-1-1-2-2 0 0-1-1-2-2-1-1-2-1-3-2 0-1 0-1-1-2-1-1-2-2-3-3-1-1-1-1-1-2-1-1-3-2-4-3 0-1 0-1 0-1 0 0-1-1-1-1-1-1-2-2-3-3 0-1-1-2-1-3-1-1-1-1-2-2-1-1-2-3-2-4-1 0-1 0-1-1-16-25-25-54-25-84v-17c0-8 7-14 15-14s15 6 15 14v17c0 13 2 27 6 40 9-7 20-10 31-10 2 0 4 0 5 0 14 1 25 7 34 17l16 19c8 9 12 21 11 34-2 10-6 19-13 26 5 1 9 3 13 4l87 15 69-90c6-9 17-14 28-14 5 0 10 1 14 3l5 2 20-22-29-193h-189v114c0 7-6 14-15 14s-15-7-15-14v-114h-60c-10 0-18 8-18 17v70c0 8-7 14-15 14s-15-6-15-14v-70c0-25 22-45 48-45h692c26 0 48 20 48 45v152c0 30-8 59-25 85z m-665-1l-16-19c-3-4-8-7-13-7-5-1-10 1-14 4l-6 5c1 2 2 4 4 6 0 0 0 0 0 0 1 2 2 4 4 6 0 0 1 1 1 1 1 2 2 3 4 5 0 0 0 1 1 1 1 2 3 3 4 5 1 0 1 1 2 1 1 2 3 3 4 5 0 0 0 0 1 0 5 6 12 10 18 15l4-3c4-3 6-7 7-12 0-5-1-10-5-13z m595 25l3 3c7-5 13-10 19-15 0 0 0 0 0 0 2-2 3-3 5-5 0 0 0-1 1-1 2-2 3-3 4-5 1 0 1-1 1-1 2-2 3-3 4-5 1 0 1-1 1-1 2-2 3-4 4-6 0 0 0 0 0 0 2-2 3-4 5-6l-7-5c-4-3-9-5-14-4-5 0-10 3-13 6l-16 19c-7 8-6 20 3 26z m-180 41c0 0 1 0 0 0l4 3c1 0 2 1 3 1l16-3-61-79c-2-2-4-3-7-2l-44 18 89 62z m-119-48l-87 61c8 10 13 23 13 36v8c23-9 48-14 74-14 0 0 0 0 0 0 0 0 0 0 0 0 26 0 51 5 74 14v-8c0-13 5-26 13-36l-87-61z m29-44l-13-15h-31l-14 15 29 11 29-11z m-245 506c-19 11-29 23-29 35 0 26 36 60 69 81 30 19 93 51 176 51s146-32 176-51c34-21 70-55 70-81 0-12-11-24-30-35v26c0 19-14 37-35 42-38 9-115 24-190 24 0 0 0 0 0 0-65 0-130-13-173-24-20-5-33-23-33-42v-26z m52-49c0 0 0 0 0 0-1 1-2 1-3 2-1 0-1 0-1 1-1 0-2 1-2 1-1 1-1 1-2 1 0 1-1 1-1 1-1 1-1 1-2 2 0 0-1 0-1 1-1 0-1 1-2 1 0 1 0 1-1 1 0 0 0 0 0 0h252c9 0 15 6 15 14 0 8-6 14-15 14h-259v36c0 7 5 13 12 15 41 10 103 23 165 23 0 0 0 0 0 0 72 0 145-15 183-24 7-2 12-8 12-15v-35h-40c-8 0-15-6-15-14 0-8 7-14 15-14h33c0 0 0 0 0 0 0 0-1-1-1-1 0 0-1-1-1-1-1-1-1-1-2-1 0-1-1-1-1-2-1 0-1-1-2-1 0 0-1-1-1-1-1 0-2-1-2-1-1-1-1-1-1-1-1-1-2-1-3-2 0 0-1 0-1 0-6-4-13-8-22-11 0 0 0 0-1 0-32-12-80-22-141-22s-109 10-141 22c0 0 0 0-1 0-8 4-16 7-22 11z m2-33v-27c-9 4-17 6-24 7v33c7-4 14-9 24-13z m324 0c10 4 17 9 24 13v-33c-7-1-15-3-24-7v27z m-272-222c-30 25-48 62-49 102-1 7-7 14-15 14h-12c-10 0-17 7-17 15v33c0 4 2 9 6 12 5-1 15-2 24-7 0 0 0 0 0 0 1-1 2-2 3-3 0 0 0 0 1 0 0-1 1-1 1-2 1 0 1 0 2-1 0 0 0 0 0 0 0 0 1-1 1-1 0 0 0 0 1 0 0-1 1-1 1-1 0 0 0 0 0 0 1 0 1 0 2-1 0 0 0 0 0 0 1 0 1 0 1 0 1 0 1 0 1-1 0 0 1 0 2 0 0 0 0 0 0 0 0 0 1 0 1 0 1 0 1 0 1 0 0 0 1 0 1 0 0 0 0 0 1 0 0 0 0 0 0 0 0 0 1 0 2 0 0 0 0 0 0 0 0 0 1 0 1 0 1 0 1 0 1 0 0 0 1 0 1 1 1 0 1 0 1 0 1 0 1 0 2 0 8 3 13 10 13 18v34c38-12 86-17 132-17s94 5 132 17v-34c0-8 5-15 13-18 1 0 1 0 2 0 0 0 0 0 1 0 0-1 1-1 1-1 0 0 0 0 0 0 2 0 3 0 4 0 0 0 0 0 0 0 0 0 0 0 0 0 1 0 1 0 2 0 0 0 0 0 0 0 1 0 3 0 4 0 0 0 0 0 0 1 1 0 1 0 1 0 1 0 1 0 1 0 0 0 1 1 1 1 0 0 0 0 0 0 1 0 1 1 2 1 0 0 0 0 0 0 1 0 1 0 1 1 1 0 1 0 1 0 0 1 1 1 1 1 1 1 1 1 2 2 0 0 0 0 0 0 1 1 1 1 2 1 0 0 0 0 0 1 1 0 1 0 2 1 0 0 0 0 0 0 1 0 1 0 2 1 0 0 0 0 0 0 0 0 1 0 2 1 0 0 0 0 0 0 1 0 1 0 2 0 0 0 0 0 0 0 0 1 1 1 2 1 0 0 0 0 0 0 1 0 1 1 2 1 0 0 0 0 0 0 0 0 1 0 2 0 0 0 0 0 0 0 4 2 9 2 11 2 4-3 6-7 6-12v-32c0-9-7-16-16-16h-12c-8 0-15-6-15-13-1-40-19-77-50-102-32-26-69-39-110-39-40 0-77 13-109 39z m36-190c-3-1-6 0-7 2l-61 79 16 3c1 0 2 0 3-1l4-3c0 0 0 0 0 0l89-62-44-18z m37-239l28 184h18l28-184h-74z m383 0h-60v114c0 7-7 14-15 14s-15-7-15-14v-114h-189l-29 193 20 22 5-2c4-2 9-2 14-2 11 0 22 5 29 14l68 89 87-15c4-1 9-3 13-4-16-17-17-42-2-60l17-19c8-10 20-16 33-17 2 0 4 0 5 0 12 0 22 3 31 10 4-13 6-26 6-40v-152h0c0-9-8-17-18-17z m-141 128h-79c-14 0-25-11-25-23v-40c0-12 11-22 25-22h79c13 0 24 10 24 22v40c0 12-11 23-24 23z m-74-57v29h68v-29h-68z m-257 57h-79c-13 0-24-11-24-23v-40c0-12 11-22 24-22h79c14 0 25 10 25 22v40c0 12-11 23-25 23z m-5-57h-68v29h68v-29z" horiz-adv-x="1000" />

<glyph glyph-name="wargakita-sms" unicode="&#xe80c;" d="M183 430c11-6 33-14 51-14 18 0 25 6 25 16 0 10-6 14-28 22-39 13-54 34-54 57 0 35 30 62 78 62 22 0 42-5 53-11l-10-41c-9 5-25 11-42 11-14 0-22-5-22-15 0-9 7-14 31-22 36-12 51-31 51-59 0-35-28-61-82-61-25 0-47 5-62 13l11 42z m169 78c0 24 0 44-1 61h50l3-26h1c8 12 25 30 58 30 24 0 44-12 52-32h1c7 10 15 17 24 23 11 6 22 9 36 9 37 0 65-26 65-82v-113h-58v104c0 28-9 44-28 44-14 0-24-10-27-21-2-4-3-10-3-15v-112h-58v107c0 24-8 41-27 41-15 0-24-12-28-22-2-4-2-10-2-14v-112h-58v130z m335-78c11-6 34-14 51-14 18 0 26 6 26 16 0 10-6 14-28 22-40 13-55 34-54 57 0 35 30 62 77 62 22 0 42-5 54-11l-11-41c-8 5-25 11-41 11-14 0-23-5-23-15 0-9 8-14 31-22 36-12 52-31 52-59 0-35-28-61-83-61-25 0-47 5-61 13l10 42z m89-568l-307 251h-360c-55 0-101 47-101 103v523c0 57 46 103 101 103h778c55 0 101-46 101-103v-522c0-57-46-103-101-103h-111l0-252 0 0z m-667 919c-22 0-40-19-40-42v-522c0-23 18-42 40-42h382l224-183v183h172c22 0 40 19 40 42v522c0 23-18 42-40 42h-778z" horiz-adv-x="1000" />

<glyph glyph-name="wargakita-call-security" unicode="&#xe80d;" d="M139 262v146h-72c-26 0-47-22-47-49v-280c0-27 21-49 47-49h41v-2-60c0-9 7-16 15-16 4 0 8 2 11 5l67 70h300c25 0 46 22 46 49v70h-296c-62 0-112 52-112 116z m771 504h-660c-40 0-71-34-71-74v-428c0-41 32-74 71-74h455l104-109c4-4 9-7 15-7 13 0 23 10 23 24v92h64c39 0 71 34 71 74v428c0 40-33 74-72 74z m-508-365c0-5-1-8-2-12-1-4-2-8-5-10-3-3-5-5-8-6-3-1-6-2-10-2s-7 1-9 2c-4 2-6 4-8 7-3 2-4 5-5 10-1 3-2 7-2 11v46h-53v-46c0-10-3-17-7-22-3-2-5-4-8-5-3-1-6-2-10-2-3 0-7 1-9 2-4 2-6 3-8 6-3 3-4 6-5 10-1 4-2 8-2 11v131c0 5 1 8 2 11 0 4 2 7 5 10 2 3 5 5 8 6 2 1 6 2 9 2 4 0 7-1 10-2 4-1 6-3 8-5 3-3 4-6 5-10 1-4 2-8 2-12v-39h53v39c0 5 1 8 2 11 0 4 2 7 5 10 4 6 10 8 17 8 4 0 7-1 10-2 4-1 6-3 8-5 3-3 4-6 5-10 1-4 2-8 2-12v-131z m179-13c-1-3-3-6-6-7-1-2-5-4-8-5-2-1-6-1-8-1h-88c-5 0-8 1-12 2-3 1-7 3-9 5-3 3-5 7-6 10 0 4-1 8-1 12v125c0 3 0 6 0 8 1 3 1 6 3 8 1 3 3 4 4 6 2 2 4 4 7 5 1 1 4 2 7 2s5 1 8 1h85c4 0 6 0 9-1 3-1 6-3 8-5 2-2 3-5 5-7 1-3 2-6 2-9 0-2-1-6-2-8-1-3-3-5-5-7-2-2-5-4-8-5-4-2-6-2-10-2h-64v-26h59c4 0 6 0 9-1 2-1 5-3 8-5 2-2 3-4 5-7 1-3 2-6 2-8 0-3-1-6-2-9-1-2-3-5-4-7-2-2-5-4-8-5-3-1-6-1-9-1h-60v-26h67c3 0 6 0 9-1 3-1 6-3 8-5 2-1 3-4 5-7 1-3 2-6 2-9-1-5-1-7-2-10z m156-7c-2-2-5-4-8-5-2-1-6-1-9-1h-79c-4 0-8 1-11 2-4 1-7 3-10 5-2 3-4 7-5 10-1 4-2 8-2 12v129c0 4 1 8 2 11 1 3 3 7 5 10 5 5 11 8 18 8 4 0 7-1 10-2 3-1 6-3 8-5 2-3 4-6 5-10 1-4 2-8 2-12v-112h57c3 0 7-1 9-2 4-1 7-3 8-5 3-2 5-4 6-7 0-3 1-6 1-9 0-7-2-13-7-17z m168 93c-2-7-8-14-14-19-6-6-13-9-22-12-8-3-17-4-28-4h-21v-38c0-5-1-8-2-12-1-4-2-8-5-10-3-3-5-5-8-7-3-1-6-1-10-1-3 0-7 1-9 1-4 1-6 4-8 7-3 3-5 5-5 10-1 3-2 7-2 11v128c0 5 1 8 2 12s3 8 6 10c2 3 6 5 9 6 4 1 7 2 12 2h41c6 0 13 0 17-1 5-1 10-2 13-3 4-1 7-3 11-5 3-2 6-4 9-6 3-3 6-6 8-9 2-4 5-7 6-10 1-4 2-8 3-12s1-9 1-13c1-8 0-17-4-25z m-48 37c-1 1-4 2-6 3-5 1-10 1-16 1h-13v-33h13c4 0 7 0 10 1 2 0 5 1 7 2 1 1 3 1 4 2 1 1 2 2 3 3 0 1 0 2 1 3 1 2 1 4 1 7 0 3 0 5-1 7-1 1-2 3-3 4z" horiz-adv-x="1000" />

<glyph glyph-name="wargakita-phone-call" unicode="&#xe80e;" d="M941 77l-188 189c-23 22-59 22-82 0l-49-49c-15-16-20-38-14-57l-19-19c0 0 0 0 0 0-13-13-94 7-193 106-98 99-118 181-105 194 0 0 0 0 0 0l18 19c5-2 11-3 16-3 15 0 29 6 41 17l48 49c23 23 23 59 0 82l-188 188c-10 11-25 17-40 17-15 0-30-6-41-17l-48-49c-16-15-21-37-15-57 0 0-16-16-16-17-52-58-62-149-28-258 34-107 107-220 205-318 99-99 211-172 318-206 43-13 83-20 119-20 60 0 109 18 145 54l10 10c5-2 10-2 16-2 15 0 30 6 41 16l48 49c23 23 23 60 1 82z m-755 675l188-188-49-49c0 0 0 0 0 0l-1 1-93 93-94 94 49 49z m598-789c0 0 0 0 0 0-41-42-114-49-206-20-98 31-202 99-294 192-92 92-160 197-191 295-29 91-22 165 19 206l0 0 5 6 146-147-13-13c0 0 0 0 0 0-56-56 11-181 105-275 71-71 159-126 222-126 21 0 39 6 53 20 0 0 0 0 0 0l13 13 146-146-5-5z m67 25l-188 188 49 49 188-188c0 0-49-50-49-49z m-105 610c-54 55-127 85-204 85-16 0-29-13-29-29s13-28 29-28c62 0 120-25 164-69 44-44 68-102 68-164 0-16 13-29 29-29 15 0 28 13 28 29 0 77-30 150-85 205z m103 104c-82 82-191 128-308 128-15 0-28-13-28-29 0-16 12-29 28-29 101 0 196-39 268-111 71-72 111-167 111-268 0-16 12-29 28-29 16 0 29 13 29 29 0 117-45 226-128 309z m-206-207c-27 27-62 42-101 42 0 0 0 0 0 0-16 0-29-13-29-29 0-16 13-29 29-29 0 0 0 0 0 0 23 0 44-8 61-25 16-17 25-38 25-61 0-16 13-29 29-29h0c15 0 28 13 28 29 0 39-14 74-42 102z" horiz-adv-x="1000" />
</font>
</defs>
</svg>